{
    "title":"Blank OpenEoto course",
    "description":"",
    "version":"0.1",
    "url":"",
    "authors":[
        {
        "name":"First author (optional)",
        "link":"http://first-author-website.com"
        },
        {
        "name":"Second author (optional)",
        "link":""
        },
    ],
    "sessions":[
        {
            "id":1,
            "title":"Introduction",
            "path":"sessions/001/introduction.html",
            "description":""
        },
        {
            "id":2,
            "title":"Another session",
            "path":"sessions/002/another_session.html",
            "description":""
        }
    ]
}